%YAML 1.1
%TAG !u! tag:unity3d.com,2011:
--- !u!1045 &1
EditorBuildSettings:
  m_ObjectHideFlags: 0
  serializedVersion: 2
  m_Scenes:
  - enabled: 1
    path: Assets/Scenes/MainMenu.unity
    guid: f82fbb7b69b7d404ebdd26ef092b639d
  - enabled: 1
    path: Assets/Scenes/Congratulations.unity
    guid: 3723126ce46809248a9c17ecad1c19c8
  - enabled: 1
    path: Assets/Scenes/Level1.unity
    guid: 9fc0d4010bbf28b4594072e72b8655ab
  - enabled: 1
    path: Assets/Scenes/Level2.unity
    guid: 8ac2ce86b4e40b74bb984cb11bf7dafe
  - enabled: 1
    path: Assets/Scenes/Level3.unity
    guid: 1df7a6604bdf12e4c9d340a3b6966450
  m_configObjects: {}
